<?xml version="1.0" encoding="UTF-8" standalone="no"?>
<!-- Created with Inkscape (http://www.inkscape.org/) -->

<svg
   xmlns:dc="http://purl.org/dc/elements/1.1/"
   xmlns:cc="http://creativecommons.org/ns#"
   xmlns:rdf="http://www.w3.org/1999/02/22-rdf-syntax-ns#"
   xmlns:svg="http://www.w3.org/2000/svg"
   xmlns="http://www.w3.org/2000/svg"
   xmlns:sodipodi="http://sodipodi.sourceforge.net/DTD/sodipodi-0.dtd"
   xmlns:inkscape="http://www.inkscape.org/namespaces/inkscape"
   width="105mm"
   height="74mm"
   id="svg2"
   version="1.1"
   inkscape:version="0.92.2 5c3e80d, 2017-08-06"
   sodipodi:docname="carta_organica_pirata.svg"
   viewBox="0 0 372.04724 262.20472">
  <defs
     id="defs4" />
  <sodipodi:namedview
     id="base"
     pagecolor="#ffffff"
     bordercolor="#666666"
     borderopacity="1.0"
     inkscape:pageopacity="0.0"
     inkscape:pageshadow="2"
     inkscape:zoom="0.5"
     inkscape:cx="248.60204"
     inkscape:cy="93.372958"
     inkscape:document-units="mm"
     inkscape:current-layer="g80"
     showgrid="false"
     showguides="true"
     inkscape:guide-bbox="true"
     units="mm"
     inkscape:window-width="1280"
     inkscape:window-height="738"
     inkscape:window-x="0"
     inkscape:window-y="62"
     inkscape:window-maximized="0">
    <sodipodi:guide
       orientation="1,0"
       position="262.20472,0"
       id="guide3168"
       inkscape:locked="false" />
    <sodipodi:guide
       orientation="0,1"
       position="72.857143,271.42857"
       id="guide3277"
       inkscape:locked="false" />
  </sodipodi:namedview>
  <metadata
     id="metadata7">
    <rdf:RDF>
      <cc:Work
         rdf:about="">
        <dc:format>image/svg+xml</dc:format>
        <dc:type
           rdf:resource="http://purl.org/dc/dcmitype/StillImage" />
        <dc:title />
      </cc:Work>
    </rdf:RDF>
  </metadata>
  <g
     inkscape:label="Capa 1"
     inkscape:groupmode="layer"
     id="layer1"
     transform="translate(0,-790.15742)">
    <g
       id="layer1-8"
       inkscape:label="Capa 1"
       transform="matrix(0.08044084,0,0,0.08078752,208.33019,981.00938)">
      <rect
         style="fill:#22002b"
         id="rect3033"
         width="4625.104"
         height="3245.6094"
         x="-2589.8562"
         y="-2362.394" />
      <g
         inkscape:export-ydpi="149"
         inkscape:export-xdpi="149"
         inkscape:export-filename="/srv/http/kiwwwi.com.ar/pastes/utopia-pirata-2.png"
         transform="matrix(0.67937345,0,0,0.67937345,-233.93427,225.03697)"
         id="g3847" />
    </g>
    <g
       id="g88">
      <g
         transform="translate(0,-1.0012212)"
         id="g80">
        <rect
           style="fill:#ffffff"
           id="rect3035"
           width="372.04724"
           height="173.31082"
           x="2.9508118e-07"
           y="809.1864" />
        <text
           xml:space="preserve"
           style="font-style:normal;font-variant:normal;font-weight:normal;font-stretch:normal;line-height:0%;font-family:FontAwesome;-inkscape-font-specification:FontAwesome;letter-spacing:0px;word-spacing:0px;fill:#000000;fill-opacity:1;stroke:none;stroke-width:1px;stroke-linecap:butt;stroke-linejoin:miter;stroke-opacity:1"
           x="25.446587"
           y="874.64746"
           id="text3453-0"><tspan
             sodipodi:role="line"
             id="tspan3455-5"
             x="25.446587"
             y="874.64746"
             style="font-style:normal;font-variant:normal;font-weight:normal;font-stretch:normal;font-size:28.41109085px;line-height:1.25;font-family:'League Gothic';-inkscape-font-specification:'League Gothic'">Partido Pirata</tspan></text>
        <text
           xml:space="preserve"
           style="font-style:normal;font-variant:normal;font-weight:normal;font-stretch:normal;line-height:0%;font-family:FontAwesome;-inkscape-font-specification:FontAwesome;letter-spacing:0px;word-spacing:0px;fill:#000000;fill-opacity:1;stroke:none;stroke-width:1px;stroke-linecap:butt;stroke-linejoin:miter;stroke-opacity:1"
           x="24.199577"
           y="950.92065"
           id="text3453"><tspan
             sodipodi:role="line"
             id="tspan3455"
             x="24.199577"
             y="950.92065"
             style="font-style:normal;font-variant:normal;font-weight:normal;font-stretch:normal;font-size:84.26808929px;line-height:1.25;font-family:'League Gothic';-inkscape-font-specification:'League Gothic'">Carta Orgánica</tspan></text>
      </g>
    </g>
  </g>
</svg>
